Phased and unphased data
…
Simulating data

To have some example data, we will first simulate some artificial
data. We can do so as follows:

simulated_data <- sim_phased_unphased(pop_size = 1000,
                                      freq_ancestor_1 = 0.5,
                                      total_runtime = 100,
                                      size_in_morgan = 1,
                                      time_points = 100,
                                      markers = 1000)

simulated_data

## # A tibble: 10,000 × 5
##     time individual location anc_chrom_1 anc_chrom_2
##    <dbl>      <dbl>    <dbl>       <dbl>       <dbl>
##  1   100          0  0.00134           1           0
##  2   100          0  0.00217           1           0
##  3   100          0  0.00590           1           0
##  4   100          0  0.00694           1           0
##  5   100          0  0.00741           1           0
##  6   100          0  0.00799           1           0
##  7   100          0  0.00991           1           0
##  8   100          0  0.0101            1           0
##  9   100          0  0.0129            1           0
## 10   100          0  0.0131            1           0
## # ℹ 9,990 more rows
…
simulated_data <- sim_phased_unphased(pop_size = 1000,
                                        freq_ancestor_1 = 0.5,
                                        total_runtime = 100,
                                        size_in_morgan = 1,
                                        time_points = 100,
                                        markers = 1000,
                                        error_rate = 0.01)

simulated_data$true_data

## # A tibble: 10,000 × 5
##     time individual location anc_chrom_1 anc_chrom_2
##    <dbl>      <dbl>    <dbl>       <dbl>       <dbl>
##  1   100          0  0.00105           0           0
##  2   100          0  0.00130           0           0
##  3   100          0  0.00378           0           0
##  4   100          0  0.00410           0           0
##  5   100          0  0.00736           0           1
##  6   100          0  0.00820           0           1
##  7   100          0  0.00847           0           1
##  8   100          0  0.00900           0           1
##  9   100          0  0.00961           0           1
## 10   100          0  0.0105            0           1
## # ℹ 9,990 more rows

simulated_data$phased_data

## # A tibble: 10,000 × 5
##     time individual location anc_chrom_1 anc_chrom_2
##    <dbl>      <dbl>    <dbl>       <dbl>       <dbl>
##  1   100          0  0.00105           0           0
##  2   100          0  0.00130           0           0
##  3   100          0  0.00378           0           0
##  4   100          0  0.00410           0           0
##  5   100          0  0.00736           0           1
##  6   100          0  0.00820           0           1
##  7   100          0  0.00847           0           1
##  8   100          0  0.00900           0           1
##  9   100          0  0.00961           0           1
## 10   100          0  0.0105            0           1
## # ℹ 9,990 more rows
…
